https://www.youtube.com/watch?v=46RJxJ-Fm0Y
https://dastinia.io/write-up/hackthebox/2018/06/27/hackthebox-fulcrum-writeup/
http://www.hackingarticles.in/hack-the-box-fulcrum-walkthrough/
https://hackertor.com/2018/09/17/hack-the-box-fulcrum-walkthrough/

