https://raw.githubusercontent.com/PunitGr/codeabbey/master/Rounding.py
https://raw.githubusercontent.com/marclerodrigues/ruby_exercises/master/rounding.rb
https://raw.githubusercontent.com/Alackey/codeabbey-projects/master/Rounding/src/Main.java
https://raw.githubusercontent.com/Tempurturtul/CodeAbbey/master/C%23/Rounding.cs
https://raw.githubusercontent.com/snowhawk04/CodeAbbey/master/p006/main.cpp
https://raw.githubusercontent.com/chriswood/codeabbey/master/ca6.lisp
https://raw.githubusercontent.com/DylanLenz/codeAbbey_Solutions_JavaScript/master/rounding_codeAbbey_6.js
https://raw.githubusercontent.com/RyanLafferty/CodeAbbey/master/p6.c
https://raw.githubusercontent.com/mpeshehonov/Codeabbey/master/practice/%236/index.php
https://raw.githubusercontent.com/mmcdon20/code_abbey/master/src/main/scala/Abbey006.scala
https://raw.githubusercontent.com/YetAnotherMinion/YAMScratch/master/CodeAbbey/rust-sol/src/6.rs
https://raw.githubusercontent.com/vinitkantrod/go-codeabbey/master/07_rounding/main.go
https://raw.githubusercontent.com/MadcapJake/codeabbey-problems/master/perl6/rounding/rounding.pl
https://gitlab.com/CodeArtisan/codeabbey/raw/master/problem_6/solution.rkt
https://raw.githubusercontent.com/skilled19/sols/master/harv/codeabbey-6-rounding.d
https://raw.githubusercontent.com/skilled19/sols/master/harv/codeabbey-6-rounding.vb
https://raw.githubusercontent.com/skilled19/sols/master/harv/codeabbey-6-rounding.jl
