https://raw.githubusercontent.com/BlakeBrown/HackerRank-Solutions/master/Contests/2016%20-%20July%20World%20Codesprint/CamelCase.cpp
https://raw.githubusercontent.com/RyanFehr/HackerRank/master/Algorithms/Strings/camelCase/Solution.cs
https://raw.githubusercontent.com/charles-wangkai/hackerrank/master/camelcase/Solution.java
https://raw.githubusercontent.com/danhenriquesc/hackerrank/master/algorithms/strings/camel_case.php
https://raw.githubusercontent.com/danhenriquesc/hackerrank/master/algorithms/strings/camel_case.py
https://raw.githubusercontent.com/TomLous/hackerrank/master/src/main/scala/algorithms/strings/CamelCase.scala
https://raw.githubusercontent.com/raghav97/Hackerrank-Solutions/master/camelCase.rb

