https://raw.githubusercontent.com/nayuki/Project-Euler-solutions/master/java/p124.java
https://raw.githubusercontent.com/nayuki/Project-Euler-solutions/master/python/p124.py
https://www.mathblog.dk/project-euler-124-sorted-radical-function/
