https://github.com/bakerhamilton/Coderbyte-solutions/raw/master/SimpleAdding.java
https://github.com/bolducp/coderbyte/raw/master/easy/05_simple_adding.py
https://raw.githubusercontent.com/ZLester/Coderbyte-Solutions/master/Easy/05%20-%20Simple%20Adding.js
https://raw.githubusercontent.com/Nigelmnz/CoderbyteSolutions/master/05-SimpleAdding/5.hs
