https://raw.githubusercontent.com/adityagupta1089/Codeforces-Solutions/master/P133B.py
https://raw.githubusercontent.com/fuwutu/CodeForces/master/133B%20-%20Unary.cpp
https://raw.githubusercontent.com/Erfaniaa/Codeforces/master/133B-Unary.pas
