https://raw.githubusercontent.com/linuxp3nguin/microcorruption-1/master/CTF/WH
http://piratezpdx.blogspot.com.co/2014/11/microcorruption-whitehorse.html
https://rakshacks.wordpress.com/2016/08/18/microcorruption-whitehorse/
https://www.youtube.com/watch?v=nCrXgrPW7SY
http://jpaglier.blogspot.com.co/2015/02/microcorruption-vi-whitehorse.html
http://ctfunhax00r.blogspot.com.co/2017/01/microcorruption-whitehorse.html
http://tlk.tuxfamily.org/doku.php?id=writeup:microcorruption:whitehorse
http://j4ckp4rd.tistory.com/83
https://github.com/ciz/microcorruption#whitehorse
