https://raw.githubusercontent.com/sile/euler.rs/master/euler_02/src/problem059.rs
https://raw.githubusercontent.com/nayuki/Project-Euler-solutions/master/java/p059.java
https://raw.githubusercontent.com/kdungs/euler/master/059/euler_059.py
https://www.mathblog.dk/project-euler-59-xor-encryption/
