https://raw.githubusercontent.com/Ska89/just-for-fun-codeabbey.com/master/SpaceshipWightFroud.java
https://raw.githubusercontent.com/chrisdfrey/code-abbey-solutions/master/spaceship-weight-fraud.py
https://raw.githubusercontent.com/JesseClarkND/codeabbey_in_C-NET/master/Spaceship%20Weight%20Fraud
