https://raw.githubusercontent.com/igor-kutepov/codeabbey/master/src/main/java/com/kutepov/samples/codeabbey/DungeonsAndDragonsDice.java
https://raw.githubusercontent.com/JesseClarkND/codeabbey_in_C-NET/master/Dungeons%20and%20Dragons%20Dice
https://raw.githubusercontent.com/skilled19/sols/master/SOLUCIONES-51/DaMastaBrain-dungeons-and-dragons-dice-51.php
https://raw.githubusercontent.com/skilled19/sols/master/SOLUCIONES-51/Tor%20Lobo-dungeons-and-dragons-dice-51.go
https://raw.githubusercontent.com/skilled19/sols/master/SOLUCIONES-51/Vladimir%20Skvortsov%20-51-dungeons-and-dragons-dice-ruby.rb
https://raw.githubusercontent.com/skilled19/sols/master/SOLUCIONES-51/ayy_luamao-dungeons-and-dragons-dice-51.lua
https://raw.githubusercontent.com/skilled19/sols/master/SOLUCIONES-51/faked_IQ-dungeons-and-dragons-dice-51-hs
https://raw.githubusercontent.com/skilled19/sols/master/SOLUCIONES-51/gerhardt_funk-dungeons-and-dragons-dice-51.lisp
https://raw.githubusercontent.com/skilled19/sols/master/SOLUCIONES-51/hamza772000-dungeons-and-dragons-dice-51.vb
https://raw.githubusercontent.com/skilled19/sols/master/SOLUCIONES-51/scala_scholar-dungeons-and-dragons-dice-51.scala
https://raw.githubusercontent.com/skilled19/sols/master/SOLUCIONES-51/serviceable-dungeons-and-dragons-dice-51.rust
https://raw.githubusercontent.com/skilled19/sols/master/SOLUCIONES-51/synesius-dungeons-and-dragons-dice-51.julia
