https://raw.githubusercontent.com/TheAaronCovington/Java-Coderbyte-Solutions/master/18LetterCountI.java
https://raw.githubusercontent.com/ZLester/Coderbyte-Solutions/master/Easy/18%20-%20Letter%20Count%20I.js
https://raw.githubusercontent.com/Nigelmnz/CoderbyteSolutions/master/18-LetterCountI/18.hs
