https://raw.githubusercontent.com/adityagupta1089/Codeforces-Solutions/master/P514B.py
https://raw.githubusercontent.com/mpfeifer1/Codeforces/master/514b.cpp
https://raw.githubusercontent.com/o-panda-o/MySolutions/master/Geometry/Code_514B_HanSoloAndLazerGun.java
