https://raw.githubusercontent.com/nikzsaz/Codeforces-solution/master/149A-BusinessTrip.cpp
https://raw.githubusercontent.com/changyuheng/codeforces-solutions/master/149a.py
https://raw.githubusercontent.com/Erfaniaa/Codeforces/master/149A-Businesstrip.pas
