https://raw.githubusercontent.com/sile/euler.rs/master/euler_03/src/problem083.rs
https://raw.githubusercontent.com/nayuki/Project-Euler-solutions/master/java/p083.java
https://raw.githubusercontent.com/nayuki/Project-Euler-solutions/master/python/p083.py
https://www.mathblog.dk/project-euler-83-find-the-minimal-path-sum-from-the-top-left-to-the-bottom-right-by-moving-left-right-up-and-down/
