= TODO

== Similitud

. Rabin Karp + Minify.
. https://en.wikipedia.org/wiki/Rabin%E2%80%93Karp_algorithm 
. https://theory.stanford.edu/~aiken/moss/
. https://github.com/hjalti/mossum

== Otros

. Detectar carpetas sin LINK.lst
. Detectar carpetas sin DATA.lst
. Detectar soluciones con nombre de archivo que no corresponde a login.
. Detectar violación de estructura de carpetas más de 2 niveles? codeeval?
. Linters de java y php.
. Migrar presentación de entrenamiento e inmersión al wiki?
. Migrar plantillas de correo del entrenamiento al wiki?
. Cambiar en el formulario de entrenamiento la URL del pull request, por la 
  URL del integrador continuo en verde.
. Cambiar requisitos de ranking mundial por numero de soluciones nuevas en
  el repositorio.
. Adicionar numero de OTHERS.lst por cada X retos resueltos.
. Agregar sección de requisito de 0 logs de linters en artifacts para
  proceso de inmersión.
. Crear plantilla para el commit 
. Organizar scripts como hooks.
.. http://wadmiraal.net/lore/2014/07/14/how-git-hooks-made-me-a-better-and-more-lovable-developer/
.. http://codeinthehole.com/writing/tips-for-using-a-git-pre-commit-hook/
. Validación de documentos de texto y de especificaciones 
.. http://stackoverflow.com/questions/3262569/validating-a-yaml-document-in-python
. Incorporar analisis de legibilidad automatico.
.. https://olgacarreras.blogspot.com.co/2016/10/medicion-de-la-readability-o.html
.. apt-get install diction (comando style), ARI sentences
. Eastwood linting tool clojure.
. Bloqueo de analisis de similitud en CI (solo local).
. Verificación de ortografia tambien en articulos (solo gherkin).
. Cache de retos de otros.
. Verificar compilabilidad de asccidoc,
. Poner requisitos de headers minimos de asciidoc. Template?
. Construcción con scons para no ejecutar tareas ya realizadas.
. Retos relacionados con infraestructura y ansible? chef? docker?.
. Retos de hacking no en gherking sino con splinter.
. Organización de scripts en carpeta scripts? bin? muchos en la raiz.
. Migración de retos 2015 y 2016 que se encuentran en .ZIP internamente.
. https://gitter.im/ chat con los talentos via gitter? slack?
. Dockerfile de travis que facilite verificar paquetes disponibles en CI.
.. https://docs.travis-ci.com/user/ci-environment/

== Enlaces

. https://josepablosarco.wordpress.com/2015/03/11/lenguaje-gherkin/
. https://www.genbetadev.com/metodologias-de-programacion/bdd-cucumber-y-gherkin-desarrollo-dirigido-por-comportamiento
. https://www.adictosaltrabajo.com/tutoriales/bdd-con-cucumber/
. http://kvz.io/blog/2013/12/29/one-git-commit-hook-to-rule-them-all/ 
. https://github.com/icefox/git-hooks/blob/master/README.md
. http://stackoverflow.com/questions/3262569/validating-a-yaml-document-in-python
. https://github.com/icefox/git-hooks/blob/master/contrib/pre-commit/bash_syntax
. https://github.com/nofluffjuststuff/nfjsmag-docs/blob/master/author-writing-style-and-syntax-guide.adoc
. https://www.slideshare.net/mobile/renggli/text-lint
. https://www.npmjs.com/package/textlint
. http://codeinthehole.com/writing/tips-for-using-a-git-pre-commit-hook/
