https://www.youtube.com/watch?v=j7SNRAWl1bg
https://alexandervoidstar.wordpress.com/2015/08/02/hackthis-basic-level-4/
https://www.youtube.com/watch?v=Fcm7fdz6NhU
https://www.youtube.com/watch?v=uqCGO2EWKoI
https://www.youtube.com/watch?v=D49qDs0GQ14
https://www.youtube.com/watch?v=MKpbFUQUYVU
https://www.youtube.com/watch?v=OLX-4BpCOrg
https://hackinblood.lasermark.co/basic-hackthis-co-uk-2/
https://raw.githubusercontent.com/luceatnobis/challenges/master/hackthis.co.uk/basic/4/notes
https://medium.com/@thereallulz/write-up-hackthis-main-basic-all-levels-by-thereallulz-4c5dac3b0545

