https://raw.githubusercontent.com/Niravkumar-Patel/SnippetExampleRepo/master/SnippetExamplePractice/src/hackerrank/BracesCheck.java
http://xahlee.info/comp/validate_matching_brackets/validate_brackets_Raymond_Hettinger.py
https://raw.githubusercontent.com/chriswood/codeabbey/master/caid19.lisp
https://raw.githubusercontent.com/mpeshehonov/Codeabbey/master/practice/%2319/index.php
https://raw.githubusercontent.com/mmcdon20/code_abbey/master/src/main/scala/Abbey019.scala
https://raw.githubusercontent.com/McQuinTrix/CodeAbbey/master/19.%20Matching_Brackets.js
https://gitlab.com/CodeArtisan/codeabbey/raw/master/problem_19/solution.rkt
https://raw.githubusercontent.com/JesseClarkND/codeabbey_in_C-NET/master/Matching%20Brackets
