https://cysecguide.blogspot.com/2017/10/root-me-write-up-bash-system-1.html
https://raw.githubusercontent.com/Vinnyz/Root-me-challenge-App-Script/master/Bash%20-%20System%201
http://anthonyvoza.blogspot.com/2018/10/rootme-ctf-app-security-bash-system-1.html
https://raw.githubusercontent.com/rebe11ion/CTFs/master/Rootme-App-Script.md
https://underc0de.org/foro/soluciones-de-wargames/(root-me)-elf32-system-1/
http://guidedtourofmythoughts.blogspot.com/2016/08/app-script-elf32-system-1.html
http://n3k0sec.top/2018/04/15/root-me-App-Script/
https://infostatex.blogspot.com/2017/12/root-me-bash-password-authentication.html
http://www.jaccostraathof.nl/?p=1
http://exp-blog.com/2019/01/02/pid-2705/
https://github.com/rebe11ion/CTFs/blob/master/Rootme-App-Script.md
https://bitbelle.wordpress.com/portfolio/root-me-web-server-challenge-solutions/
