https://raw.githubusercontent.com/ArnoldM904/CodeAbbey_Solutions/master/Python/id127-Anagrams.py
https://raw.githubusercontent.com/KlaudioVito/CodeAbbey/master/Anagrams.java
https://raw.githubusercontent.com/Chainsawkitten/CodeAbbeyProblems/master/src/Problem%20127/Problem%20127.cpp
https://gist.githubusercontent.com/ToJans/7984691/raw/64a78865743f6cab56f875b813ac34f20a308606/anagram.cs
https://gist.githubusercontent.com/anler/b767e6cbd3bd8bb1f24bc77e0afdd04a/raw/c69a7b3a93222d34340e40ba5b0269729976b816/anagram.js
https://raw.githubusercontent.com/tonyskn/coursera-scala/master/w6-forcomp/src/main/scala/forcomp/Anagrams.scala
https://raw.githubusercontent.com/mcdickenson/anagrams/master/script/anagram_benchmark.rb
https://raw.githubusercontent.com/mcdickenson/anagrams/master/anagrams-go/anagrams.go
https://raw.githubusercontent.com/mostfamiliar/anagrams-php/master/src/Anagram.php
https://raw.githubusercontent.com/jakemcc/exercism-solutions/master/clojure/anagram/anagram.clj
https://raw.githubusercontent.com/aklomp/anagram/master/anagram.c
https://raw.githubusercontent.com/purcell/haskell-anagrams/master/Main.hs
https://raw.githubusercontent.com/eightbitraptor/lua-anagrams/master/anagrams.lua
https://raw.githubusercontent.com/robhardwick/asmgrm/master/test.asm
https://raw.githubusercontent.com/JesseClarkND/codeabbey_in_C-NET/master/Anagrams
