https://raw.githubusercontent.com/IncludeZ/root-me/master/Web-Server/HTML
http://hackinblood.lasermark.co/html-root-me/
https://bitbelle.wordpress.com/2018/01/10/root-me-web-server-challenge-solutions/
https://github.com/yelynn1/Root-me/blob/master/Web_server.md#1
https://www.youtube.com/watch?v=w4AnJGmRFVU
