https://alexandervoidstar.wordpress.com/2015/08/23/hackthis-intermediate-level-3/
https://www.youtube.com/watch?v=NrC3129Q55c
https://www.youtube.com/watch?v=3AFOqt9Eo7Y
https://www.youtube.com/watch?v=HztDNpZe-a4
https://www.youtube.com/watch?v=A46IZhyweZ0
https://www.youtube.com/watch?v=vyEbMznYd6I
