https://raw.githubusercontent.com/nayuki/Project-Euler-solutions/master/java/p093.java
https://raw.githubusercontent.com/nayuki/Project-Euler-solutions/master/python/p093.py
https://www.mathblog.dk/project-euler-93-longest-sequence/
