https://github.com/TheAaronCovington/Java-Coderbyte-Solutions/raw/master/07SimpleSymbols.java
https://github.com/bolducp/coderbyte/raw/master/easy/07_simple_symbols.py
https://raw.githubusercontent.com/ZLester/Coderbyte-Solutions/master/Easy/07%20-%20Simple%20Symbols.js
https://raw.githubusercontent.com/Nigelmnz/CoderbyteSolutions/master/07-SimpleSymbols/7.hs
