https://raw.githubusercontent.com/TheAaronCovington/Java-Coderbyte-Solutions/master/12VowelCount.java
https://raw.githubusercontent.com/ZLester/Coderbyte-Solutions/master/Easy/12%20-%20Vowel%20Count.js
https://raw.githubusercontent.com/Nigelmnz/CoderbyteSolutions/master/12-VowelCount/12.hs
