https://raw.githubusercontent.com/Waqar-107/Codeforces/master/B-set/431B.Shower%20Line.cpp
https://raw.githubusercontent.com/o-panda-o/MySolutions/master/Implementation/Code_431B_ShowerLine.java
https://raw.githubusercontent.com/changyuheng/codeforces-solutions/master/431b.py
