https://raw.githubusercontent.com/ArnoldM904/CodeAbbey_Solutions/master/Python/id035-Savings_Calculator.py
https://raw.githubusercontent.com/gravoo/codeabbey/master/Savings%20Calculator.cpp
https://raw.githubusercontent.com/KlaudioVito/CodeAbbey/master/SavingsCalculator.java
https://raw.githubusercontent.com/lpil/learning-ruby/master/codeabbey/038_savings_calc.rb
https://raw.githubusercontent.com/AleksandrSD/CodeAbbeyProblems/master/Problem35/Program.cs
https://raw.githubusercontent.com/mmcdon20/code_abbey/master/src/main/scala/Abbey035.scala
https://raw.githubusercontent.com/YetAnotherMinion/YAMScratch/master/CodeAbbey/rust-sol/src/35.rs
https://raw.githubusercontent.com/McQuinTrix/CodeAbbey/master/35.%20Savings%20Calculator.js
