https://www.youtube.com/watch?v=EKGBskG8APc
https://www.youtube.com/watch?v=8NwL2P0pCLg
https://ironhackers.es/en/writeups/jeeves-hackthebox/
https://largoat.uk/jeeves/
https://www.hackingarticles.in/hack-the-box-jerry-walkthrough/
