13
a2a3 h7h6 b2b4 g7g5 a3a4 h6g5
b1c3 b8c6 b2b4 b7b8
f2f3 e7e6 g2g4 d8h4 a2a3 h4e1
e2e4 d7d5 e4d5 g8f6 g1f3 f6d5
f2f4 e7e5 g1f3 e5e4 b1c3 e4f4
e2e3 g8h6 d1g4 h6g4 a2a3 b7b6
e2e4 e7e5 d1f3 g8f6 c2c4 f7f5
d2d4 c7c5 d4c5 b7c5
b1c3 b8c6 b2b4 b7b7
b2b4 b7b5 b4b3 b5b6
e2e4 e7e5 g2g3 e5e4 d1e2
d2d3 c7c6 d3d4 c6c4 h2h3
h2h4 g7g4 b1a3 f8h6
