http://sp4hack.blogspot.com.co/2012/10/we-chall-training-www-robots.html
http://winkar.github.io/2015/01/24/wechall.html
https://raw.githubusercontent.com/BirkhoffLee/wechall/master/exploit/Training%20WWW-Robots/README.md
https://raw.githubusercontent.com/james9909/PracticeCTF/master/WeChall/WWW-Robots/Solution.txt
https://raw.githubusercontent.com/lc4t/OtherFiles/master/md/WeChall.md
http://blog.csdn.net/justesss/article/details/39051137
http://z0mbi2.tistory.com/14
http://www.mamicode.com/info-detail-195122.html
http://www.tqcto.com/article/internet/345919.html
http://c6h4cl2.lab.uy.to/1092
http://sithlab.tistory.com/1092
http://byd.dropsec.xyz/2016/03/04/WeChall_writeup/#Training-WWW-Robots
https://medium.com/bugbountywriteup/wechall-wargame-solutions-76f60ea39b16
