https://github.com/Hackplayers/hackthebox-writeups/blob/master/machines/Valentine/Ghostpp7-Valentine.pdf
https://github.com/Hackplayers/hackthebox-writeups/blob/master/machines/Valentine/drx51-valentine.pdf
https://github.com/Hackplayers/hackthebox-writeups/blob/master/machines/Valentine/fiti-valentine.pdf
https://github.com/Hackplayers/hackthebox-writeups/blob/master/machines/Valentine/frosters-valentine.pdf
https://github.com/Hackplayers/hackthebox-writeups/blob/master/machines/Valentine/mcruz-valentine.pdf
https://github.com/Hackplayers/hackthebox-writeups/blob/master/machines/Valentine/pimmytrousers-valentine.pdf
https://v3ded.github.io/ctf/htb-valentine.html
https://medium.com/@DRX_Sicher/walkthrough-valentine-d03fbc295fab
https://dastinia.io/write-up/hackthebox/2018/05/11/hackthebox-valentine-writeup/
https://www.hackthebox.eu/home/machines/writeup/127
https://www.youtube.com/watch?v=gnLGRb--AoM
https://www.youtube.com/watch?v=koiwiJELNiY
https://www.absolomb.com/2018-07-31-HackTheBox-Valentine/
https://www.hackingarticles.in/hack-the-box-valentine-walkthrough/
