https://raw.githubusercontent.com/Maximization/CodeAbbey/master/src/SumAB.java
https://raw.githubusercontent.com/vinitkantrod/codeabbey-Solutions-in-Python/master/1_sum_a_plus_b.py
https://raw.githubusercontent.com/bbp-labs/leetcode/master/algorithms/sum_of_two_integers.rb
https://raw.githubusercontent.com/gravoo/codeabbey/master/Sum%20%22A%2BB%22.cpp
https://raw.githubusercontent.com/Tempurturtul/CodeAbbey/master/C%23/Sum.cs
https://raw.githubusercontent.com/jsenne/Code-Abbey-Solutions/master/001_Sum_A%2BB.js
https://raw.githubusercontent.com/chriswood/codeabbey/master/ca1.lisp
https://raw.githubusercontent.com/mpeshehonov/Codeabbey/master/practice/%231/index.php
https://raw.githubusercontent.com/RyanLafferty/CodeAbbey/master/p1.c
https://raw.githubusercontent.com/mmcdon20/code_abbey/master/src/main/scala/Abbey001.scala
https://raw.githubusercontent.com/YetAnotherMinion/YAMScratch/master/CodeAbbey/rust-sol/src/1.rs
https://raw.githubusercontent.com/schoolo/codeabbey/master/problems/one/main.go
https://gitlab.com/CodeArtisan/codeabbey/raw/master/problem_1/solution.rkt
https://self-learning-java-tutorial.blogspot.com/2017/11/brainfuck-sum-of-two-numbers.html
https://books.google.com.co/books?id=oaU8AAAAIAAJ&pg=PA10&lpg=PA10&dq=sum+ada+program&source=bl&ots=ysuwqu4wfX&sig=ACfU3U2Tx2VWndxJv_zVm6FXM2ZmHkJkuw&hl=es&sa=X&ved=2ahUKEwiBtPO2stLhAhURwlkKHZciBaEQ6AEwAXoECAcQAQ#v=onepage&q=sum%20ada%20program&f=false
https://tecadmin.net/tutorial/bash/examples/add-to-numbers/
http://www.dailyfreecode.com/code/two-numbers-1758.aspx
https://www.inettutor.com/programming-tutorial/compute-the-sum-of-two-numbers-in-visual-basic-net/
https://rosettacode.org/wiki/Sum_and_product_of_an_array#Babel
https://rosettacode.org/wiki/Sum_and_product_of_an_array#ALGOL_68
https://rosettacode.org/wiki/Sum_and_product_of_an_array#COBOL
https://rosettacode.org/wiki/Sum_and_product_of_an_array#4D
https://rosettacode.org/wiki/Sum_and_product_of_an_array#ACL2
https://rosettacode.org/wiki/Sum_and_product_of_an_array#ActionScript
https://rosettacode.org/wiki/Sum_and_product_of_an_array#Aime
https://rosettacode.org/wiki/Sum_and_product_of_an_array#APL
https://rosettacode.org/wiki/Sum_and_product_of_an_array#AppleScript
https://rosettacode.org/wiki/Sum_and_product_of_an_array#AutoHotkey
https://rosettacode.org/wiki/Sum_and_product_of_an_array#AWK
https://rosettacode.org/wiki/Sum_and_product_of_an_array#bc
https://rosettacode.org/wiki/Sum_and_product_of_an_array#Befunge
https://rosettacode.org/wiki/Sum_and_product_of_an_array#Bracmat
https://rosettacode.org/wiki/Sum_and_product_of_an_array#Chef
https://rosettacode.org/wiki/Sum_and_product_of_an_array#Clean
https://rosettacode.org/wiki/Sum_and_product_of_an_array#Clojure
https://rosettacode.org/wiki/Sum_and_product_of_an_array#CoffeeScript
https://rosettacode.org/wiki/Sum_and_product_of_an_array#Crystal
https://rosettacode.org/wiki/Sum_and_product_of_an_array#D
https://rosettacode.org/wiki/Sum_and_product_of_an_array#dc
https://rosettacode.org/wiki/Sum_and_product_of_an_array#Delphi
https://rosettacode.org/wiki/Sum_and_product_of_an_array#E
https://raw.githubusercontent.com/skilled19/sols/master/eldanielcr-01-sum-ofab.fs
https://raw.githubusercontent.com/skilled19/sols/master/harv/codeabbey-1-sum-of-two.vb
https://raw.githubusercontent.com/skilled19/sols/master/harv/codeabbey-1-sum-of-two.ml
https://raw.githubusercontent.com/skilled19/sols/master/harv/codeabbey-1-sum-of-two.pl
https://raw.githubusercontent.com/skilled19/sols/master/harv/codeabbey-1-sum-of-two.jl
