https://raw.githubusercontent.com/mpillar/codeeval/master/2-hard/text-to-number/main.py
https://raw.githubusercontent.com/chris-roerig/code-eval/master/text-to-number-v1.rb
https://raw.githubusercontent.com/SedaKunda/CodeEval/master/Hard-Level/TextToNumber.java
https://raw.githubusercontent.com/pascal-bourut/codeeval-challenges/master/hard/110%20-%20Text%20to%20number/main.js
https://raw.githubusercontent.com/pascal-bourut/codeeval-challenges/master/hard/110%20-%20Text%20to%20number/main.php
