https://raw.githubusercontent.com/nayuki/Project-Euler-solutions/master/java/p128.java
https://raw.githubusercontent.com/nayuki/Project-Euler-solutions/master/python/p128.py
https://www.mathblog.dk/project-euler-128-which-tiles-in-the-hexagonal-arrangement-have-prime-differences-with-neighbours/
