https://raw.githubusercontent.com/Chainsawkitten/CodeAbbeyProblems/master/src/Problem%2042/Problem%2042.cpp
https://raw.githubusercontent.com/ArnoldM904/CodeAbbey_Solutions/master/Python/id042-Blackjack_Counting.py
https://raw.githubusercontent.com/KlaudioVito/CodeAbbey/master/BlackjackCounting.java
https://raw.githubusercontent.com/AleksandrSD/CodeAbbeyProblems/master/Problem42/Program.cs
https://raw.githubusercontent.com/mmcdon20/code_abbey/master/src/main/scala/Abbey042.scala
https://raw.githubusercontent.com/JesseClarkND/codeabbey_in_C-NET/master/Blackjack%20Counting
