https://raw.githubusercontent.com/irisyuan/linear-congruential-generator/master/lcg.java
https://gist.githubusercontent.com/oss6/8085178/raw/1156cf7cb5e579067890185aa2ec7d13168dff50/lcg.py
https://raw.githubusercontent.com/gravoo/codeabbey/master/Linear%20Congruential%20Generator.cpp
https://raw.githubusercontent.com/chriswood/codeabbey/master/ca25.lisp
https://raw.githubusercontent.com/AleksandrSD/CodeAbbeyProblems/master/Problem25/Program.cs
https://raw.githubusercontent.com/mpeshehonov/Codeabbey/master/practice/%2325/index.php
https://raw.githubusercontent.com/mmcdon20/code_abbey/master/src/main/scala/Abbey025.scala
https://gitlab.com/CodeArtisan/codeabbey/raw/master/problem_25/solution.rkt
https://raw.githubusercontent.com/skilled19/sols/master/harv/codeabbey-8-arithmetic-progression.pl
