https://raw.githubusercontent.com/nayuki/Project-Euler-solutions/master/java/p117.java
https://raw.githubusercontent.com/nayuki/Project-Euler-solutions/master/python/p117.py
https://www.mathblog.dk/project-euler-117-different-sized-tiles/
