https://raw.githubusercontent.com/nayuki/Project-Euler-solutions/master/java/p115.java
https://raw.githubusercontent.com/nayuki/Project-Euler-solutions/master/python/p115.py
https://www.mathblog.dk/project-euler-115-separated-blocks/
