https://raw.githubusercontent.com/pascal-bourut/codeeval-challenges/master/moderate/117%20-%20A%20Pile%20of%20Bricks/117.js
https://raw.githubusercontent.com/pascal-bourut/codeeval-challenges/master/moderate/117%20-%20A%20Pile%20of%20Bricks/117.php
https://raw.githubusercontent.com/nikai3d/ce-challenges/master/moderate/pile_of_bricks.hs
https://raw.githubusercontent.com/nikai3d/ce-challenges/master/moderate/pile_of_bricks.go
https://raw.githubusercontent.com/nikai3d/ce-challenges/master/moderate/pile_of_bricks.c
https://raw.githubusercontent.com/nikai3d/ce-challenges/master/moderate/pile_of_bricks.lua
https://raw.githubusercontent.com/nikai3d/ce-challenges/master/moderate/pile_of_bricks.rb
https://raw.githubusercontent.com/ferhatelmas/algo/master/codeEval/medium/a_pile_of_bricks.py
https://raw.githubusercontent.com/TheCK/codeChallenges/master/codeEval/src/main/java/org/ck/codeEval/medium/aPileOfBricks/Main.java
