https://raw.githubusercontent.com/nayuki/Project-Euler-solutions/master/java/p049.java
https://raw.githubusercontent.com/sile/euler.rs/master/euler_01/src/problem049.rs
https://www.mathblog.dk/project-euler-49-arithmetic-sequences-primes-permutations/
