https://rundata.wordpress.com/2014/03/12/over-the-wire-natas-wargame-solutions-0-6/
https://infamoussyn.com/2014/02/05/overthewire-natas-level-0-16-writeup-updated/#level3
http://r4stl1n.github.io/2014/12/27/OverTheWire-Natas0-7.html#natas-3
https://routley.io/tech/2017/06/17/natas.html
https://www.youtube.com/watch?v=1IBuV6_Ol28&t=297s
https://www.youtube.com/watch?v=fFxIjzeGOsI
https://manintheit.org/security/solutions-of-natas-1-15/
https://hackmethod.com/overthewire-natas-3/
