https://github.com/luceatnobis/challenges/tree/master/net-force.nl/internet3
https://nopsrus.blogspot.com.co/2012/07/solution-for-net-forcenl-level-701-hey.html
https://www.youtube.com/watch?v=nugCDTyR5ko
https://raw.githubusercontent.com/djcomidi/netforce/master/internet/level701/solution.txt
https://resources.infosecinstitute.com/defeating-conundrums-solutions-to-net-force-internet-ctf-challenges/#gref

