https://raw.githubusercontent.com/ArnoldM904/CodeAbbey_Solutions/master/Python/id128-Combinations_Counting.py
https://raw.githubusercontent.com/KlaudioVito/CodeAbbey/master/CombinationsCounting.java
https://raw.githubusercontent.com/AleksandrSD/CodeAbbeyProblems/master/Problem128/Program.cs
https://raw.githubusercontent.com/AlexMckey/CodeAbbey_Scala/master/src/CombinationsCounting.scala
https://raw.githubusercontent.com/JesseClarkND/codeabbey_in_C-NET/master/Combinations%20Counting
