https://raw.githubusercontent.com/mpillar/codeeval/master/0-easy/not-so-clever/main.go
https://raw.githubusercontent.com/mpillar/codeeval/master/0-easy/not-so-clever/main.py
https://raw.githubusercontent.com/StevenDunn/CodeEval/master/NotSoClever/c/nsc.c
https://raw.githubusercontent.com/StevenDunn/CodeEval/master/NotSoClever/cpp/nsc.cpp
