https://www.secjuice.com/hackthebox-poison/
https://zineausa.com/blog/2018/09/hackthebox-poison-writeup/
https://kpaxindustries.github.io/hackthebox/2018/09/08/Poison.html
https://www.youtube.com/watch?v=8fdIVADTFCY
https://www.youtube.com/watch?v=rs4zEwONzzk
https://github.com/Hackplayers/hackthebox-writeups/blob/master/machines/Poison/drx51-poison.pdf
https://github.com/Hackplayers/hackthebox-writeups/blob/master/machines/Poison/fibbot-poison.pdf
https://github.com/Hackplayers/hackthebox-writeups/blob/master/machines/Poison/kauffman-poison.pdf
https://github.com/Hackplayers/hackthebox-writeups/blob/master/machines/Poison/mcruz-poison.pdf
https://github.com/Hackplayers/hackthebox-writeups/blob/master/machines/Poison/pimmytrousers-poison.pdf
https://medium.com/bugbountywriteup/poison-a-port-forwarding-privesc-hackthebox-walkthrough-afb1d6f7a7f6
https://medium.com/ctf-writeups/poison-write-up-htb-291830069331
https://www.youtube.com/watch?v=eiTgBem9AJ4
https://neilsec.com/penetration-testing/hackthebox-poison-walkthrough/
https://infosecuritygeek.com/hackthebox-poison/
https://percussiveelbow.github.io/htb-poison/
https://codemonkeyism.co.uk/htb-poison/
https://0xsaiyajin.github.io/writeup/2018/09/22/hackthebox-poison-writeup-eng.html
https://www.absolomb.com/2018-09-08-HackTheBox-Poison/
https://github.com/TheresAFewConors/HackTheBox-WriteUps/raw/master/Poison.pdf
https://www.hackingarticles.in/hack-the-box-poison-walkthrough/
