https://www.youtube.com/watch?v=vHPwbI3VM2Q
https://alexandervoidstar.wordpress.com/2015/06/27/hackthis-main-level-3/
http://liberte-informatique.blogspot.com.co/2013/03/hackthiscouk-main-level-3.html
https://obilan.be/hackthis-main-level-3/
https://www.youtube.com/watch?v=PCI1L5trtxc
https://www.youtube.com/watch?v=xmLCtoMMIpw
http://www.commentcamarche.net/forum/affich-25541678-level-3-main-hackthis
https://www.youtube.com/watch?v=jzYR1OUF84A
https://www.youtube.com/watch?v=Kqnaf4cOw0A
https://www.youtube.com/watch?v=oJ6xPCo0kKo
https://www.youtube.com/watch?v=JcIC1SPODO0
https://www.youtube.com/watch?v=ggRwKC9FsAw
https://www.youtube.com/watch?v=i9RSGNxz6-8
https://www.youtube.com/watch?v=AXocnzp_h40
https://www.youtube.com/watch?v=VZTNtYqmab8
