https://raw.githubusercontent.com/adityagupta1089/Codeforces-Solutions/master/P186.java
https://raw.githubusercontent.com/fuwutu/CodeForces/master/186A%20-%20Строкосравнитель.cpp
https://raw.githubusercontent.com/Waqar-107/Codeforces/master/A-set/186A.Comparing%20Strings.py
https://raw.githubusercontent.com/Erfaniaa/Codeforces/master/186A-ComparingStrings.pas
