http://sp4hack.blogspot.com.co/2014/01/overthewire-bandit-level-15-to-level-16.html
https://www.yalpski.net/bandit-wargame/bandit-walkthrough-level-15
https://hackmethod.com/overthewire-bandit-15/
https://alexandervoidstar.wordpress.com/2016/02/27/overthewire-bandit-level-15/
https://kongwenbin.wordpress.com/2016/08/31/overthewire-bandit-level-15-to-level-16/
https://infamoussyn.com/2013/11/08/overthewire-bandit-level-0-25-writeup-completed/#level14
https://jdow.io/blog/2017/12/16/overthewire-bandit-wargame-walkthrough/#level-14---15
https://raw.githubusercontent.com/Cathon/mySolutions/master/overthewire/Bandit/Level_15.md
https://medium.com/@Kan1shka9/overthewire-wargames-bandit-walkthrough-df2b86826c67
https://github.com/milescrabill/overthewire-solutions/blob/master/Bandit.md
https://jhalon.github.io/over-the-wire-bandit2/
https://www.youtube.com/watch?v=RK8dljkbpbM
https://www.youtube.com/watch?v=46osLHSU6Ig
https://raw.githubusercontent.com/Lorenyx/OverTheWire-Solutions/master/bandit/level_15.md
