https://github.com/VulnHub/ctf-writeups/raw/master/2018/angstromctf/web/get-me.md
https://medium.com/bugbountywriteup/angstrom-ctf-2018-web-challenges-writeup-8a69998b0123
https://raw.githubusercontent.com/zst123/angstromctf-2018-writeups/master/Solved/get_me/README.md
