https://hackmethod.com/overthewire-bandit-23/
http://hexjump.blogspot.com.co/2014/12/bandit-level-23-to-level-24.html
https://alexandervoidstar.wordpress.com/2016/03/26/overthewire-bandit-level-23/
https://blogcompsci.wordpress.com/2014/11/02/bandit-level-23-%E2%86%92-level-24/
http://sp4hack.blogspot.com.co/2014/01/overthewire-bandit-level-23-to-level-24.html
https://infamoussyn.com/2013/11/08/overthewire-bandit-level-0-25-writeup-completed/
https://raw.githubusercontent.com/Cathon/mySolutions/master/overthewire/Bandit/Level_23.md
https://medium.com/@Kan1shka9/overthewire-wargames-bandit-walkthrough-df2b86826c67
https://jdow.io/blog/2017/12/16/overthewire-bandit-wargame-walkthrough/#level-23---24
https://jhalon.github.io/over-the-wire-bandit2/
https://www.youtube.com/watch?v=buX-OBMAYVs
http://blog.zairo.kr/entry/OverTheWire-%E2%80%93-Bandit-Level-23?category=569917https://jdow.io/blog/2017/12/16/overthewire-bandit-wargame-walkthrough/#level-23---24
https://raw.githubusercontent.com/Lorenyx/mySolutions/master/overthewire/Bandit/Level_23.md
https://github.com/milescrabill/overthewire-solutions/blob/master/Bandit.md
