https://gist.githubusercontent.com/wolfsyntax/b6bfbaac1369e2707410d1b8ee8e668a/raw/529dbf8ad4c4ac4983e1ac37c722a83403722df7/invert_case.cpp
https://raw.githubusercontent.com/haikentcode/Hackerearth-CodeMonk-Python/master/Searching/Monk's%20Encounter%20with%20Polynomial.py

