https://raw.githubusercontent.com/akalin/cryptopals-python3/master/challenge38.py
https://raw.githubusercontent.com/akalin/cryptopals-python3/master/challenge38_attacker.py
https://raw.githubusercontent.com/akalin/cryptopals-python3/master/challenge38_cracker.py
https://raw.githubusercontent.com/akalin/cryptopals-python3/master/challenge38_server.py
https://raw.githubusercontent.com/technion/matasano_challenge/master/set5/chal38/chal38.rb
