https://www.youtube.com/watch?v=Y2wBHfkoAxY
http://sp4hack.blogspot.com.co/2012/09/hack-this-site-application-2.html
http://tomearp.blogspot.com.co/2012/02/hack-this-site-application-challenges.html
https://www.youtube.com/watch?v=EQw7M5fYejY
https://www.youtube.com/watch?v=e88djrllJt0
