https://raw.githubusercontent.com/MaskRay/HackerRank/master/separate-the-chocolate.cc
https://raw.githubusercontent.com/akegalj/algorithms_playground/dcba3540b5eacb73dbabd657dae250da92191b7f/hackerrank/SeparateTheChocolate.hs

