https://rundata.wordpress.com/2013/03/25/overthewire-leviathan-wargame-solution-1/
https://jhalon.github.io/over-the-wire-leviathan/
https://www.youtube.com/watch?v=I6Ns7R7paJY&t=346s
http://blog.zairo.kr/entry/OverTheWire-%E2%80%93-Leviathan-Level-1?category=570140
https://raw.githubusercontent.com/luceatnobis/challenges/master/overthewire.org/leviathan/leviathan
https://raw.githubusercontent.com/Lorenyx/OverTheWire-Solutions/master/leviathan/level_1.md
