https://raw.githubusercontent.com/nayuki/Project-Euler-solutions/master/java/p123.java
https://raw.githubusercontent.com/nayuki/Project-Euler-solutions/master/python/p123.py
https://www.mathblog.dk/project-euler-123-remainder/
