https://github.com/p1o2p3u1/WeChall/blob/master/Training/Crypto_Caesar_II.md
http://winkar.github.io/2015/01/24/wechall.html
https://raw.githubusercontent.com/stefanoschrs/wechall/master/Crypto/Crypto%20-%20Caesar%20II.js
https://raw.githubusercontent.com/lc4t/OtherFiles/master/md/WeChall.md
http://0xc0de.tistory.com/21
https://raw.githubusercontent.com/p1o2p3u1/WeChall/master/Training/Crypto_Caesar_II.md
http://sourcecodeplease.net/?p=170
https://raw.githubusercontent.com/luceatnobis/challenges/master/wechall.net/caesar_2/caesar2.py
