https://raw.githubusercontent.com/nayuki/Project-Euler-solutions/master/java/p108.java
https://raw.githubusercontent.com/nayuki/Project-Euler-solutions/master/python/p108.py
https://www.mathblog.dk/project-euler-108-diophantine-equation/
