https://raw.githubusercontent.com/nayuki/Project-Euler-solutions/master/java/p038.java
https://raw.githubusercontent.com/sile/euler.rs/master/euler_01/src/problem038.rs
https://raw.githubusercontent.com/kdungs/euler/master/038/euler_38.py
https://www.mathblog.dk/project-euler-38-pandigital-multiplying-fixed-number/
https://github.com/zimpha/competitive-programming/raw/master/project-euler/volume01/38.cc
