https://raw.githubusercontent.com/Alackey/codeabbey-projects/master/Sums%20in%20Loop/src/SumsinLoop.java
https://raw.githubusercontent.com/PunitGr/codeabbey/master/Sums%20in%20Loop.py
https://raw.githubusercontent.com/marclerodrigues/ruby_exercises/master/sums_in_loops.rb
https://raw.githubusercontent.com/bsungur/CodeAbbey/master/Problem003/Program.cs
https://raw.githubusercontent.com/gravoo/codeabbey/master/%20Sums%20in%20Loop.cpp
https://raw.githubusercontent.com/jsenne/Code-Abbey-Solutions/master/003_SumsInLoop.js
https://raw.githubusercontent.com/chriswood/codeabbey/master/ca3.lisp
https://raw.githubusercontent.com/RyanLafferty/CodeAbbey/master/p3.c
https://raw.githubusercontent.com/mpeshehonov/Codeabbey/master/practice/%233/index.php
https://raw.githubusercontent.com/mmcdon20/code_abbey/master/src/main/scala/Abbey003.scala
https://raw.githubusercontent.com/YetAnotherMinion/YAMScratch/master/CodeAbbey/rust-sol/src/3.rs
https://raw.githubusercontent.com/vinitkantrod/go-codeabbey/master/03_sums_in_loop/main.go
https://raw.githubusercontent.com/mchwalek/Projects/clojure-solutions/Numbers/prime-factorization.clj
https://raw.githubusercontent.com/Paatus/erlang_solutions/master/fib_seq.erl
https://raw.githubusercontent.com/SmellyIrishMan/CodeAbbeyProblems/master/CodeAbbeyProblems/Summing.fs
https://raw.githubusercontent.com/aterkik/Projects/master/Numbers/primeFactors.hs
https://raw.githubusercontent.com/psk11/snippets/master/cardValid.html
https://raw.githubusercontent.com/melvin0008/FactorialComparer/master/fact.jl
https://raw.githubusercontent.com/IdahoEv/project-euler-lua/master/problem_001/problem_001.lua
https://raw.githubusercontent.com/MadcapJake/codeabbey-problems/master/perl6/sums-in-loop/sums-in-loop.pl
https://raw.githubusercontent.com/melvin0008/FactorialComparer/master/fact.sml
https://raw.githubusercontent.com/tiikeri/all/master/coding-problems-solved/projects-solutions/fs.sh
https://gitlab.com/CodeArtisan/codeabbey/raw/master/problem_3/solution.rkt
https://www.youtube.com/watch?v=_sDe6zmUHuY
https://www.youtube.com/watch?v=MID3Gib7ffI
https://raw.githubusercontent.com/skilled19/sols/master/harv/codeabbey-3-sums-in-loopvb
