https://raw.githubusercontent.com/Lintik/CodeFights-Arcade/master/Intro/The%20Journey%20Begins/centuryFromYear/code.cpp
https://raw.githubusercontent.com/Lintik/CodeFights-Arcade/master/Intro/The%20Journey%20Begins/centuryFromYear/code.cs
https://raw.githubusercontent.com/Lintik/CodeFights-Arcade/master/Intro/The%20Journey%20Begins/centuryFromYear/code.java
https://raw.githubusercontent.com/Lintik/CodeFights-Arcade/master/Intro/The%20Journey%20Begins/centuryFromYear/code.js
https://raw.githubusercontent.com/Lintik/CodeFights-Arcade/master/Intro/The%20Journey%20Begins/centuryFromYear/code.py3
https://raw.githubusercontent.com/PauloLoaeza/CodeSignal/master/Arcade/01%20-%20Intro/01%20-%20The%20Journey%20Begins/centuryFromYear/centuryFromYear.ts
https://www.youtube.com/watch?v=4s_U-RUW630
