https://rgolebiowski.blogspot.co.uk/2016/06/holynix-v1-challenge.html
http://blog.techorganic.com/2012/04/holynix-hacking-challenge-part-1.html?view=sidebar
https://blog.g0tmi1k.com/2011/08/holynix-level-1/
http://www.varunchaudhry.in/2017/06/holynix-v1/
https://l33thacker.com/holynix-v1-walkthrough/
http://www.cyberry.co.uk/vulnhub/holynix-v1/
https://neo2shyalien.eu/es/holynix-v1.html
https://www.youtube.com/watch?v=ImkYhsI4sz0
https://bamboopotato.wordpress.com/2014/06/01/getting-into-holynix-1/
http://www.hackingarticles.in/hack-the-holynix-v1-boot-2-root-challenge/
