https://raw.githubusercontent.com/igor-kutepov/codeabbey/master/src/main/java/com/kutepov/samples/codeabbey/CodeGuesser.java
https://raw.githubusercontent.com/LincolnShow/CodeGuesser/master/Program.cs
https://raw.githubusercontent.com/JesseClarkND/codeabbey_in_C-NET/master/Code%20Guesser
