https://raw.githubusercontent.com/Waqar-107/Codeforces/master/A-set/253A.Boys%20and%20Girls.cpp
https://raw.githubusercontent.com/o-panda-o/MySolutions/master/Greedy/Code_253A_BoysAndGirls.java
https://raw.githubusercontent.com/changyuheng/codeforces-solutions/master/253a.py
