https://raw.githubusercontent.com/fuwutu/CodeForces/master/104A%20-%20Blackjack.cpp
https://raw.githubusercontent.com/mkirsche/Codeforces/master/104-A/104-A-822418.java
https://raw.githubusercontent.com/changyuheng/codeforces-solutions/master/104a.py
