https://raw.githubusercontent.com/mpfeifer1/Codeforces/master/486a.cpp
https://raw.githubusercontent.com/changyuheng/codeforces-solutions/master/486a.go
https://raw.githubusercontent.com/dwiajik/codeforces/master/486A.py
