https://www.youtube.com/watch?v=_6oXDdtl7CA
https://www.youtube.com/watch?v=aS6z4NgRysU
https://www.youtube.com/watch?v=DbtkCh6XzlU
https://www.youtube.com/watch?v=o2ycVQraZ80
https://www.youtube.com/watch?v=Vp1Btzga1Mw
https://www.youtube.com/watch?v=6R4xX_SfSdA
https://www.youtube.com/watch?v=iY5BQvjUv6g
https://www.youtube.com/watch?v=g_fJ3buqVLk
https://www.youtube.com/watch?v=ilR0MTTySNE
https://www.youtube.com/watch?v=GFacPoWOcw0
https://www.fwhibbit.es/htb-write-up-celestial
https://v3ded.github.io/ctf/htb-celestial.html
https://www.rootnetsec.com/hackthebox-celestial/
http://offsecnewbie.com/2018/05/10/celestial-hackthebox/
https://www.secjuice.com/hack-the-box-celestial-writeup/
https://video.hacking.reviews/2018/08/hackthebox-celestial.html
http://www.hackingarticles.in/hack-the-box-celestial-walkthrough/
https://www.capturetheflags.com/2018/08/28/celestial-hackthebox-eu/
https://medium.com/ctf-writeups/celestial-write-up-htb-3e2472e7d2c9
https://medium.com/bugbountywriteup/hackthebox-celestial-writeup-dc202c3f1ec
https://dastinia.io/write-up/hackthebox/2018/08/25/hackthebox-celestial-writeup/
https://github.com/Hackplayers/hackthebox-writeups/raw/master/machines/Celestial/drx51-celestial.pdf
