https://lightrains.org/wechall-order-by-query/
http://byd.dropsec.xyz/2016/07/23/Webchall-CTF-writeup2/
https://raw.githubusercontent.com/CyrilP/wechall/master/OrderByQuery.java
http://www.hackdig.com/02/hack-18982.htm
