https://www.youtube.com/watch?v=LROQ3EhkcSQ
https://www.youtube.com/watch?v=18MKwjHrrMM
https://hackthissitesoltution.wordpress.com/2012/03/08/hts-realistic-mission-4/
http://www.amitghosh.net/hts-realistic-mission-4-solution/
https://www.aldeid.com/wiki/Hackthissite/Realistic/Level4
