https://raw.githubusercontent.com/igor-kutepov/codeabbey/master/src/main/java/com/kutepov/samples/codeabbey/CyclesDetection.java
https://raw.githubusercontent.com/sash-ko/graph-cd/master/cycles/detector.py
https://raw.githubusercontent.com/BlakeBrown/HackerRank-Solutions/master/Tutorials/Cracking%20the%20Coding%20Interview/Linked%20Lists%20-%20Detect%20a%20Cycle.cpp
https://gist.githubusercontent.com/onpubcom/1772996/raw/ceac1212a0ed2df8411cda75c3b23530e4060810/onpubcom_array_date_sort.js
https://gist.githubusercontent.com/artf/802c44835572aa81b0881ea8348d3a36/raw/2d6a1f856eb0158b6b30d79efde7095362c79cae/orderObjects.php
https://raw.githubusercontent.com/JesseClarkND/codeabbey_in_C-NET/master/Cycles%20Detection
