https://raw.githubusercontent.com/prateeksinghal/codeforces-solutions/master/501A.cpp
https://raw.githubusercontent.com/changyuheng/codeforces-solutions/master/501a.go
https://raw.githubusercontent.com/adityagupta1089/Codeforces-Solutions/master/P501A.py
