https://raw.githubusercontent.com/nayuki/Project-Euler-solutions/master/java/p048.java
https://raw.githubusercontent.com/sile/euler.rs/master/euler_01/src/problem048.rs
https://www.mathblog.dk/project-euler-48-last-ten-digits/
https://raw.githubusercontent.com/zimpha/competitive-programming/master/project-euler/volume01/48.py
