https://phamcongit.wordpress.com/2017/09/27/challenge-1-root-me-html-disabled-buttons/
https://cysecguide.blogspot.com/2018/04/root-me-write-up-html-disabled-buttons.html
https://leethanhphuc.blogspot.com/2018/01/root-me-web-client-html-disabled-buttons.html
http://hackinblood.com/web-client-root-me/
https://www.cnblogs.com/deen-/p/7640478.html
http://n3k0sec.top/2018/04/04/root-me-web-client/
https://jgkang.space/security/write-up/root-me.org/web-client/2018/04/12/root-me-org-html-disabled-buttons.html
https://looka149.tistory.com/entry/rootmeHTML-disabled-buttons
https://duwjdtn11.tistory.com/167
http://lhhxy.cn/index.php/2018/04/01/root-me-web-client-writeup/
