https://raw.githubusercontent.com/mpillar/codeeval/master/1-moderate/city-blocks-flyover/main.py
https://raw.githubusercontent.com/TheCK/codeChallenges/master/codeEval/src/main/java/org/ck/codeEval/medium/cityBlocksFlyover/Main.java
https://raw.githubusercontent.com/nikai3d/ce-challenges/master/moderate/city_blocks.rb
https://raw.githubusercontent.com/nikai3d/ce-challenges/master/moderate/city_blocks.lua
https://raw.githubusercontent.com/nikai3d/ce-challenges/master/moderate/city_blocks.hs
https://raw.githubusercontent.com/nikai3d/ce-challenges/master/moderate/city_blocks.go
https://raw.githubusercontent.com/nikai3d/ce-challenges/master/moderate/city_blocks.c
