https://raw.githubusercontent.com/mpillar/codeeval/master/1-moderate/builders-team/main.py
https://raw.githubusercontent.com/TheCK/codeChallenges/master/codeEval/src/main/java/org/ck/codeEval/medium/buildersteam/Main.java
https://raw.githubusercontent.com/nikai3d/ce-challenges/master/moderate/builders_team.c
