https://raw.githubusercontent.com/ArnoldM904/CodeAbbey_Solutions/master/Python/id023-Bubble_in_Array.py
https://raw.githubusercontent.com/gravoo/codeabbey/master/Bubble%20in%20Array%20.cpp
https://raw.githubusercontent.com/JFMurphy/Codeabbey-solutions/master/Java/P023_BubbleInArray.java
https://raw.githubusercontent.com/AleksandrSD/CodeAbbeyProblems/master/Problem23/Program.cs
https://raw.githubusercontent.com/lpil/learning-ruby/master/codeabbey/028_bubble_in_array.rb
https://raw.githubusercontent.com/mpeshehonov/Codeabbey/master/practice/%2323/index.php
https://raw.githubusercontent.com/mmcdon20/code_abbey/master/src/main/scala/Abbey023.scala
https://raw.githubusercontent.com/javilag/codeAbbeyChalls/master/Challs/Go/023.go
https://raw.githubusercontent.com/McQuinTrix/CodeAbbey/master/23.%20Bubble_In_Array.js
https://raw.githubusercontent.com/JesseClarkND/codeabbey_in_C-NET/master/Bubble%20in%20Array
