https://raw.githubusercontent.com/nayuki/Project-Euler-solutions/master/java/p030.java
https://raw.githubusercontent.com/zsiciarz/euler.rs/master/src/solutions/problem30.rs
https://raw.githubusercontent.com/luceatnobis/challenges/master/projecteuler.net/30/30.py
https://www.mathblog.dk/project-euler-30-sum-numbers-that-can-be-written-as-the-sum-fifth-powers-digits/
https://raw.githubusercontent.com/zimpha/competitive-programming/master/project-euler/volume01/30.cc
