https://rundata.wordpress.com/2013/03/21/overthewire-bandit-wargame-solutions-1-24/
https://infamoussyn.com/2013/11/08/overthewire-bandit-level-0-25-writeup-completed/
https://jdow.io/blog/2017/12/16/overthewire-bandit-wargame-walkthrough/#level-4---5
https://www.yalpski.net/bandit-wargame/bandit-walkthrough-level-5
https://raw.githubusercontent.com/Cathon/mySolutions/master/overthewire/Bandit/Level_5.md
https://raw.githubusercontent.com/lv22/otw-natas/master/L05/level5.txt
https://medium.com/@Kan1shka9/overthewire-wargames-bandit-walkthrough-df2b86826c67
https://github.com/milescrabill/overthewire-solutions/blob/master/Bandit.md#level-5
https://www.youtube.com/watch?v=jn5Y3cOc-mM
https://www.youtube.com/watch?v=34_DDIAkxdY
https://www.youtube.com/watch?v=WL8MA3LQmHQ
https://www.youtube.com/watch?v=U8urYejzUYw
https://medium.com/secttp/overthewire-bandit-level-5-f2df304da190
https://hackmethod.com/overthewire-bandit-5/
https://raw.githubusercontent.com/Lorenyx/OverTheWire-Solutions/master/bandit/level_5.md
