https://raw.githubusercontent.com/nikzsaz/Codeforces-solution/master/141A-AmusingJoke.cpp
https://raw.githubusercontent.com/changyuheng/codeforces-solutions/master/141a.py
https://raw.githubusercontent.com/Erfaniaa/Codeforces/master/141A-AmusingJoke.pas
