http://sp4hack.blogspot.com.co/2012/09/hack-this-site-programming-2.html
https://raw.githubusercontent.com/luceatnobis/challenges/master/hackthissite.org/programming/2/2.pl
https://raw.githubusercontent.com/Wh1t3Fox/hackthissite/master/programming/02.picture_ascii_code/decode_image.py
https://raw.githubusercontent.com/attilathedud/HackThisSite/master/Programming/Problem2/Problem2.py
