https://raw.githubusercontent.com/IncludeZ/root-me/master/Cryptanalysis/Hash-SHA2
https://raw.githubusercontent.com/anomen-s/programming-challenges/master/root-me.org/Cryptanalysis/Hash-SHA2/notes.txt
https://www.youtube.com/watch?v=w_Mj0rDPh_M
