https://raw.githubusercontent.com/adityagupta1089/Codeforces-Solutions/master/P208A.java
https://raw.githubusercontent.com/dwiajik/codeforces/master/208A.py
https://raw.githubusercontent.com/nikzsaz/Codeforces-solution/master/208A-Dubstep.cpp
