https://ratil.life/hack-the-box-blocky/
https://blog.mullineaux.com.au/htb-blocky/
https://www.youtube.com/watch?v=C2O-rilXA6I
https://www.youtube.com/watch?v=giuDVkF4zyU
https://www.youtube.com/watch?v=s7QuBwU7mNk
https://www.youtube.com/watch?v=j4TVd4AS99k
https://www.youtube.com/watch?v=970Af_p56tU
https://forum.hackthebox.eu/discussions/tagged/blocky/p1
https://medium.com/@0katz/blocky-ctf-writeup-1493ce9c0038
https://video.hacking.reviews/2018/01/hackthebox-blocky.html
https://forum.hackthebox.eu/discussion/414/hackthebox-blocky-espanol
https://drive.google.com/file/d/19k8j8YcTbAUeQdgg3-WboFbGbkyVlzU4/view
http://www.hackingarticles.in/hack-the-box-challenge-blocky-walkthrough/
https://forum.hackthebox.eu/discussion/735/blocky-video-write-up-by-cristi
https://www.linkedin.com/pulse/hack-box-challenge-blocky-walkthrough-raj-chandel
