https://infamoussyn.com/2013/11/08/overthewire-bandit-level-0-25-writeup-completed/#level0
https://jdow.io/blog/2017/12/16/overthewire-bandit-wargame-walkthrough/#level-0---1
https://raw.githubusercontent.com/Cathon/mySolutions/master/overthewire/Bandit/Level_1.md
https://raw.githubusercontent.com/lv22/otw-natas/master/L01/level1.txt
https://medium.com/@Kan1shka9/overthewire-wargames-bandit-walkthrough-df2b86826c67
https://github.com/milescrabill/overthewire-solutions/blob/master/Bandit.md#level-1
https://www.youtube.com/watch?v=jn5Y3cOc-mM
https://www.youtube.com/watch?v=34_DDIAkxdY
https://www.youtube.com/watch?v=OOHTY-rnZfE
https://www.youtube.com/watch?v=U8urYejzUYw
https://hackmethod.com/overthewire-bandit-1/
https://raw.githubusercontent.com/Lorenyx/OverTheWire-Solutions/master/bandit/level_1.md
