https://raw.githubusercontent.com/charles-wangkai/hackerrank/master/gem-stones/Solution.java
https://raw.githubusercontent.com/derekhh/HackerRank/master/gem-stones.cpp
https://raw.githubusercontent.com/MaskRay/HackerRank/master/gem-stones.rb
