https://raw.githubusercontent.com/nayuki/Project-Euler-solutions/master/java/p097.java
https://raw.githubusercontent.com/nayuki/Project-Euler-solutions/master/python/p097.py
https://www.mathblog.dk/project-euler-97-digits-non-mersenne-prime/
