https://raw.githubusercontent.com/mpillar/codeeval/master/1-moderate/sequence-transformation/main.py
https://raw.githubusercontent.com/TheCK/codeChallenges/master/codeEval/src/main/java/org/ck/codeEval/medium/sequenceTransformation/Main.java
https://raw.githubusercontent.com/nikai3d/ce-challenges/master/moderate/sequence_transformation.go
