https://www.youtube.com/watch?v=JRPWFSzFaG0
https://www.youtube.com/watch?v=6ABuMIBqtGM
https://www.youtube.com/watch?v=T66suKfhZKY
https://www.youtube.com/watch?v=eiTgBem9AJ4
https://forum.hackthebox.eu/discussion/31/bank-write-up-by-arrexel
https://drive.google.com/file/d/1IJl2GLMZpg0VgZ24kXZupp611Gsqgtql/view
