https://raw.githubusercontent.com/AkashChandrakar/codeforces-solutions/master/c%2B%2B/230-A-11536045.cpp
https://raw.githubusercontent.com/adityagupta1089/Codeforces-Solutions/master/P230A.java
https://raw.githubusercontent.com/changyuheng/codeforces-solutions/master/230a.py
