https://raw.githubusercontent.com/gravoo/codeabbey/master/Binary%20Search.cpp
https://raw.githubusercontent.com/Maximization/CodeAbbey/master/src/BinarySearch.java
https://raw.githubusercontent.com/AndyCYao/codeabbey/master/CA_prob_34_Binary_Search.py
https://raw.githubusercontent.com/lpil/learning-ruby/master/codeabbey/030_binary_search.rb
https://gist.githubusercontent.com/nsfyn55/3426918/raw/20b9de6ab6307c0208606fce6c46f8a608efffaf/bin-search.scala
https://raw.githubusercontent.com/JesseClarkND/codeabbey_in_C-NET/master/Binary%20Search
