https://raw.githubusercontent.com/pascal-bourut/codeeval-challenges/master/moderate/161%20-%20Game%20of%20life/161.js
https://raw.githubusercontent.com/pascal-bourut/codeeval-challenges/master/moderate/161%20-%20Game%20of%20life/161.php
https://raw.githubusercontent.com/TheCK/codeChallenges/master/codeEval/src/main/java/org/ck/codeEval/medium/gameOfLife/Main.java
https://raw.githubusercontent.com/mpillar/codeeval/master/1-moderate/game-of-life/main.py
https://raw.githubusercontent.com/nikai3d/ce-challenges/master/moderate/game_of_life.go
https://raw.githubusercontent.com/nikai3d/ce-challenges/master/moderate/game_of_life.lua
