https://www.youtube.com/watch?v=ePl_nmLgWV4
https://www.youtube.com/watch?v=9cywuObciPk
http://www.grobinson.me/hack-this-site-realistic-6/
https://hackthissitesoltution.wordpress.com/2012/03/08/hts-realistic-mission-6/
http://www.gensale.net/hts-realistic-level-6/
http://sp4hack.blogspot.com.co/2012/09/hack-this-site-realistic-6.html
http://www.amitghosh.net/hts-realistic-mission-6-solution/
https://www.youtube.com/watch?v=ZQmT7ZBEgnY
https://raw.githubusercontent.com/m-jowett/hackthissite/master/realistic/6.py
https://www.aldeid.com/wiki/Hackthissite/Realistic/Level6
