http://juancho056.blogspot.com.co/2016/01/canyouhack.html
http://hacksitesolutions.blogspot.com.co/2015/10/solution-canyouhackit-cryptography.html
https://raw.githubusercontent.com/feix/ctf-writeup/master/canyouhackit/cryptography/solution1
