https://raw.githubusercontent.com/linuxp3nguin/microcorruption-1/master/CTF/AA
https://github.com/EganMatthew/Microcorruption-Solutions/blob/master/%2312%20Addis%20Ababa.md
https://github.com/ciz/microcorruption#addis-ababa
